info face="Jaapokki-Regular" size=32 bold=0 italic=0 charset="" unicode=0 stretchH=100 smooth=1 aa=1 padding=1,1,1,1 spacing=-2,-2
common lineHeight=35 base=24 scaleW=512 scaleH=512 pages=1 packed=0
page id=0 file="jaapokki.png"
chars count=94
char id=10    x=0    y=0    width=0    height=0    xoffset=0    yoffset=0    xadvance=0    page=0    chnl=0 
char id=32    x=0    y=0    width=0    height=0    xoffset=0    yoffset=0    xadvance=10   page=0    chnl=0 
char id=33    x=414  y=0    width=7    height=27   xoffset=0    yoffset=-1   xadvance=8    page=0    chnl=0 
char id=34    x=461  y=63   width=14   height=10   xoffset=0    yoffset=-1   xadvance=16   page=0    chnl=0 
char id=35    x=120  y=37   width=25   height=26   xoffset=0    yoffset=-1   xadvance=25   page=0    chnl=0 
char id=36    x=94   y=0    width=18   height=32   xoffset=0    yoffset=-4   xadvance=18   page=0    chnl=0 
char id=37    x=157  y=0    width=20   height=29   xoffset=0    yoffset=-1   xadvance=19   page=0    chnl=0 
char id=38    x=145  y=37   width=20   height=26   xoffset=0    yoffset=0    xadvance=20   page=0    chnl=0 
char id=39    x=475  y=63   width=6    height=10   xoffset=0    yoffset=-1   xadvance=4    page=0    chnl=0 
char id=40    x=112  y=0    width=9    height=31   xoffset=0    yoffset=-2   xadvance=10   page=0    chnl=0 
char id=41    x=121  y=0    width=10   height=31   xoffset=0    yoffset=-2   xadvance=10   page=0    chnl=0 
char id=42    x=398  y=63   width=15   height=17   xoffset=0    yoffset=-4   xadvance=17   page=0    chnl=0 
char id=43    x=420  y=63   width=16   height=16   xoffset=0    yoffset=9    xadvance=16   page=0    chnl=0 
char id=44    x=453  y=63   width=8    height=12   xoffset=0    yoffset=17   xadvance=7    page=0    chnl=0 
char id=45    x=0    y=88   width=14   height=7    xoffset=0    yoffset=13   xadvance=15   page=0    chnl=0 
char id=46    x=492  y=63   width=7    height=7    xoffset=0    yoffset=18   xadvance=7    page=0    chnl=0 
char id=47    x=120  y=63   width=15   height=22   xoffset=0    yoffset=5    xadvance=15   page=0    chnl=0 
char id=48    x=100  y=37   width=20   height=26   xoffset=0    yoffset=-1   xadvance=21   page=0    chnl=0 
char id=49    x=18   y=37   width=14   height=26   xoffset=0    yoffset=-1   xadvance=15   page=0    chnl=0 
char id=50    x=68   y=63   width=18   height=25   xoffset=0    yoffset=0    xadvance=19   page=0    chnl=0 
char id=51    x=32   y=37   width=16   height=26   xoffset=0    yoffset=0    xadvance=17   page=0    chnl=0 
char id=52    x=48   y=37   width=18   height=26   xoffset=0    yoffset=-1   xadvance=20   page=0    chnl=0 
char id=53    x=377  y=0    width=19   height=27   xoffset=0    yoffset=-1   xadvance=19   page=0    chnl=0 
char id=54    x=396  y=0    width=18   height=27   xoffset=0    yoffset=-1   xadvance=19   page=0    chnl=0 
char id=55    x=86   y=63   width=19   height=25   xoffset=0    yoffset=0    xadvance=20   page=0    chnl=0 
char id=56    x=66   y=37   width=17   height=26   xoffset=0    yoffset=0    xadvance=19   page=0    chnl=0 
char id=57    x=83   y=37   width=17   height=26   xoffset=0    yoffset=0    xadvance=19   page=0    chnl=0 
char id=58    x=413  y=63   width=7    height=16   xoffset=0    yoffset=8    xadvance=6    page=0    chnl=0 
char id=59    x=502  y=0    width=7    height=20   xoffset=0    yoffset=8    xadvance=8    page=0    chnl=0 
char id=60    x=365  y=63   width=16   height=17   xoffset=0    yoffset=6    xadvance=18   page=0    chnl=0 
char id=61    x=436  y=63   width=17   height=13   xoffset=0    yoffset=9    xadvance=16   page=0    chnl=0 
char id=62    x=381  y=63   width=17   height=17   xoffset=0    yoffset=6    xadvance=18   page=0    chnl=0 
char id=63    x=421  y=0    width=18   height=27   xoffset=0    yoffset=-2   xadvance=19   page=0    chnl=0 
char id=64    x=36   y=0    width=34   height=34   xoffset=0    yoffset=-1   xadvance=35   page=0    chnl=0 
char id=65    x=165  y=37   width=25   height=25   xoffset=0    yoffset=1    xadvance=25   page=0    chnl=0 
char id=66    x=439  y=0    width=16   height=26   xoffset=0    yoffset=-1   xadvance=18   page=0    chnl=0 
char id=67    x=455  y=0    width=21   height=26   xoffset=0    yoffset=0    xadvance=23   page=0    chnl=0 
char id=68    x=190  y=37   width=20   height=25   xoffset=0    yoffset=0    xadvance=21   page=0    chnl=0 
char id=69    x=210  y=37   width=17   height=25   xoffset=0    yoffset=0    xadvance=19   page=0    chnl=0 
char id=70    x=227  y=37   width=17   height=25   xoffset=0    yoffset=0    xadvance=18   page=0    chnl=0 
char id=71    x=476  y=0    width=26   height=26   xoffset=0    yoffset=-1   xadvance=27   page=0    chnl=0 
char id=72    x=244  y=37   width=20   height=25   xoffset=0    yoffset=0    xadvance=21   page=0    chnl=0 
char id=73    x=264  y=37   width=12   height=25   xoffset=0    yoffset=0    xadvance=13   page=0    chnl=0 
char id=74    x=276  y=37   width=18   height=25   xoffset=0    yoffset=0    xadvance=18   page=0    chnl=0 
char id=75    x=294  y=37   width=19   height=25   xoffset=0    yoffset=0    xadvance=21   page=0    chnl=0 
char id=76    x=105  y=63   width=15   height=24   xoffset=0    yoffset=1    xadvance=16   page=0    chnl=0 
char id=77    x=313  y=37   width=25   height=25   xoffset=0    yoffset=0    xadvance=26   page=0    chnl=0 
char id=78    x=338  y=37   width=21   height=25   xoffset=0    yoffset=0    xadvance=23   page=0    chnl=0 
char id=79    x=195  y=0    width=25   height=27   xoffset=0    yoffset=-1   xadvance=27   page=0    chnl=0 
char id=80    x=359  y=37   width=17   height=25   xoffset=0    yoffset=0    xadvance=17   page=0    chnl=0 
char id=81    x=131  y=0    width=26   height=30   xoffset=0    yoffset=-1   xadvance=27   page=0    chnl=0 
char id=82    x=376  y=37   width=18   height=25   xoffset=0    yoffset=0    xadvance=19   page=0    chnl=0 
char id=83    x=0    y=37   width=18   height=26   xoffset=0    yoffset=-1   xadvance=18   page=0    chnl=0 
char id=84    x=394  y=37   width=20   height=25   xoffset=0    yoffset=0    xadvance=20   page=0    chnl=0 
char id=85    x=414  y=37   width=20   height=25   xoffset=0    yoffset=0    xadvance=21   page=0    chnl=0 
char id=86    x=434  y=37   width=24   height=25   xoffset=0    yoffset=0    xadvance=25   page=0    chnl=0 
char id=87    x=458  y=37   width=32   height=25   xoffset=0    yoffset=0    xadvance=34   page=0    chnl=0 
char id=88    x=0    y=63   width=23   height=25   xoffset=0    yoffset=0    xadvance=23   page=0    chnl=0 
char id=89    x=23   y=63   width=22   height=25   xoffset=0    yoffset=0    xadvance=22   page=0    chnl=0 
char id=90    x=45   y=63   width=23   height=25   xoffset=0    yoffset=0    xadvance=23   page=0    chnl=0 
char id=91    x=16   y=0    width=10   height=34   xoffset=0    yoffset=-3   xadvance=13   page=0    chnl=0 
char id=92    x=0    y=0    width=0    height=0    xoffset=0    yoffset=0    xadvance=8    page=0    chnl=0 
char id=93    x=26   y=0    width=10   height=34   xoffset=0    yoffset=-3   xadvance=13   page=0    chnl=0 
char id=95    x=14   y=88   width=19   height=7    xoffset=0    yoffset=18   xadvance=19   page=0    chnl=0 
char id=96    x=481  y=63   width=11   height=8    xoffset=0    yoffset=-7   xadvance=11   page=0    chnl=0 
char id=97    x=153  y=63   width=18   height=18   xoffset=0    yoffset=8    xadvance=17   page=0    chnl=0 
char id=98    x=220  y=0    width=20   height=27   xoffset=0    yoffset=-1   xadvance=19   page=0    chnl=0 
char id=99    x=171  y=63   width=15   height=18   xoffset=0    yoffset=8    xadvance=15   page=0    chnl=0 
char id=100   x=240  y=0    width=19   height=27   xoffset=0    yoffset=-1   xadvance=18   page=0    chnl=0 
char id=101   x=135  y=63   width=18   height=19   xoffset=0    yoffset=7    xadvance=17   page=0    chnl=0 
char id=102   x=259  y=0    width=16   height=27   xoffset=0    yoffset=-1   xadvance=16   page=0    chnl=0 
char id=103   x=177  y=0    width=18   height=28   xoffset=0    yoffset=7    xadvance=18   page=0    chnl=0 
char id=104   x=275  y=0    width=19   height=27   xoffset=0    yoffset=-1   xadvance=18   page=0    chnl=0 
char id=105   x=490  y=37   width=7    height=25   xoffset=0    yoffset=0    xadvance=6    page=0    chnl=0 
char id=106   x=6    y=0    width=10   height=35   xoffset=0    yoffset=0    xadvance=8    page=0    chnl=0 
char id=107   x=294  y=0    width=17   height=27   xoffset=0    yoffset=-2   xadvance=18   page=0    chnl=0 
char id=108   x=311  y=0    width=7    height=27   xoffset=0    yoffset=-2   xadvance=6    page=0    chnl=0 
char id=109   x=186  y=63   width=26   height=18   xoffset=0    yoffset=8    xadvance=27   page=0    chnl=0 
char id=110   x=230  y=63   width=18   height=17   xoffset=0    yoffset=9    xadvance=17   page=0    chnl=0 
char id=111   x=212  y=63   width=18   height=18   xoffset=0    yoffset=8    xadvance=17   page=0    chnl=0 
char id=112   x=318  y=0    width=20   height=27   xoffset=0    yoffset=9    xadvance=19   page=0    chnl=0 
char id=113   x=338  y=0    width=19   height=27   xoffset=0    yoffset=9    xadvance=19   page=0    chnl=0 
char id=114   x=248  y=63   width=13   height=17   xoffset=0    yoffset=9    xadvance=13   page=0    chnl=0 
char id=115   x=261  y=63   width=13   height=17   xoffset=0    yoffset=8    xadvance=13   page=0    chnl=0 
char id=116   x=497  y=37   width=13   height=23   xoffset=0    yoffset=3    xadvance=12   page=0    chnl=0 
char id=117   x=274  y=63   width=17   height=17   xoffset=0    yoffset=8    xadvance=16   page=0    chnl=0 
char id=118   x=291  y=63   width=17   height=17   xoffset=0    yoffset=8    xadvance=17   page=0    chnl=0 
char id=119   x=308  y=63   width=24   height=17   xoffset=0    yoffset=8    xadvance=24   page=0    chnl=0 
char id=120   x=332  y=63   width=17   height=17   xoffset=0    yoffset=8    xadvance=17   page=0    chnl=0 
char id=121   x=357  y=0    width=20   height=27   xoffset=0    yoffset=8    xadvance=20   page=0    chnl=0 
char id=122   x=349  y=63   width=16   height=17   xoffset=0    yoffset=9    xadvance=17   page=0    chnl=0 
char id=123   x=70   y=0    width=12   height=32   xoffset=0    yoffset=-2   xadvance=13   page=0    chnl=0 
char id=124   x=0    y=0    width=6    height=37   xoffset=0    yoffset=-7   xadvance=19   page=0    chnl=0 
char id=125   x=82   y=0    width=12   height=32   xoffset=0    yoffset=-2   xadvance=13   page=0    chnl=0 
kernings count=463
kerning first=36 second=69 amount=-1
kerning first=68 second=73 amount=-2
kerning first=88 second=79 amount=-3
kerning first=65 second=80 amount=-1
kerning first=83 second=84 amount=-1
kerning first=70 second=97 amount=-2
kerning first=65 second=98 amount=-2
kerning first=87 second=100 amount=-4
kerning first=122 second=101 amount=-1
kerning first=111 second=85 amount=-4
kerning first=87 second=105 amount=-1
kerning first=102 second=108 amount=-1
kerning first=89 second=111 amount=-4
kerning first=101 second=118 amount=-2
kerning first=111 second=120 amount=-1
kerning first=52 second=48 amount=-1
kerning first=50 second=49 amount=-1
kerning first=55 second=50 amount=-4
kerning first=50 second=51 amount=-1
kerning first=57 second=52 amount=-3
kerning first=39 second=101 amount=-1
kerning first=50 second=54 amount=-1
kerning first=55 second=56 amount=-2
kerning first=54 second=57 amount=-3
kerning first=70 second=67 amount=-2
kerning first=118 second=87 amount=-4
kerning first=102 second=42 amount=-1
kerning first=84 second=44 amount=-3
kerning first=84 second=46 amount=-3
kerning first=86 second=45 amount=-3
kerning first=84 second=120 amount=-3
kerning first=71 second=85 amount=-4
kerning first=121 second=104 amount=-1
kerning first=68 second=36 amount=-1
kerning first=87 second=76 amount=-2
kerning first=86 second=97 amount=-5
kerning first=114 second=103 amount=-1
kerning first=119 second=103 amount=-2
kerning first=73 second=117 amount=-1
kerning first=101 second=67 amount=-1
kerning first=84 second=101 amount=-2
kerning first=79 second=86 amount=-4
kerning first=65 second=86 amount=-7
kerning first=76 second=67 amount=-3
kerning first=75 second=111 amount=-3
kerning first=65 second=106 amount=-2
kerning first=81 second=84 amount=-2
kerning first=86 second=98 amount=-1
kerning first=86 second=65 amount=-6
kerning first=85 second=76 amount=-2
kerning first=99 second=103 amount=-1
kerning first=81 second=101 amount=-1
kerning first=89 second=101 amount=-4
kerning first=111 second=86 amount=-3
kerning first=65 second=116 amount=-2
kerning first=121 second=103 amount=-3
kerning first=111 second=106 amount=-2
kerning first=75 second=118 amount=-4
kerning first=68 second=122 amount=-1
kerning first=102 second=59 amount=-1
kerning first=68 second=87 amount=-1
kerning first=36 second=121 amount=-2
kerning first=71 second=121 amount=-1
kerning first=101 second=120 amount=-1
kerning first=67 second=115 amount=-1
kerning first=74 second=65 amount=-2
kerning first=67 second=86 amount=-1
kerning first=120 second=101 amount=-2
kerning first=75 second=117 amount=-3
kerning first=102 second=97 amount=-3
kerning first=107 second=117 amount=-1
kerning first=76 second=36 amount=-1
kerning first=65 second=74 amount=-4
kerning first=107 second=118 amount=-1
kerning first=87 second=67 amount=-4
kerning first=119 second=111 amount=-1
kerning first=87 second=89 amount=-2
kerning first=104 second=106 amount=-2
kerning first=102 second=33 amount=-1
kerning first=84 second=105 amount=-2
kerning first=97 second=114 amount=1
kerning first=78 second=65 amount=-1
kerning first=65 second=99 amount=-2
kerning first=86 second=103 amount=-4
kerning first=115 second=101 amount=-1
kerning first=84 second=117 amount=-3
kerning first=87 second=101 amount=-4
kerning first=67 second=116 amount=-2
kerning first=67 second=81 amount=-2
kerning first=84 second=83 amount=-1
kerning first=65 second=119 amount=-4
kerning first=79 second=68 amount=-1
kerning first=65 second=68 amount=-1
kerning first=110 second=121 amount=-1
kerning first=69 second=106 amount=-2
kerning first=112 second=111 amount=-1
kerning first=99 second=111 amount=-1
kerning first=119 second=115 amount=-1
kerning first=65 second=97 amount=-3
kerning first=111 second=119 amount=-2
kerning first=89 second=117 amount=-2
kerning first=118 second=101 amount=-2
kerning first=79 second=85 amount=-3
kerning first=70 second=101 amount=-2
kerning first=65 second=85 amount=-2
kerning first=85 second=89 amount=-2
kerning first=87 second=104 amount=-1
kerning first=67 second=117 amount=-2
kerning first=65 second=71 amount=-3
kerning first=116 second=121 amount=-1
kerning first=76 second=89 amount=-3
kerning first=108 second=106 amount=-2
kerning first=67 second=119 amount=-3
kerning first=82 second=65 amount=-1
kerning first=107 second=115 amount=-1
kerning first=82 second=111 amount=-2
kerning first=105 second=106 amount=-2
kerning first=39 second=97 amount=-2
kerning first=68 second=106 amount=-2
kerning first=88 second=97 amount=-2
kerning first=67 second=97 amount=-1
kerning first=65 second=66 amount=-1
kerning first=75 second=89 amount=-1
kerning first=67 second=87 amount=-1
kerning first=57 second=54 amount=-3
kerning first=121 second=98 amount=-1
kerning first=89 second=83 amount=-3
kerning first=97 second=107 amount=1
kerning first=121 second=115 amount=-2
kerning first=87 second=117 amount=-3
kerning first=112 second=102 amount=-1
kerning first=84 second=69 amount=-1
kerning first=112 second=106 amount=-2
kerning first=65 second=82 amount=-1
kerning first=111 second=67 amount=-1
kerning first=111 second=122 amount=-1
kerning first=73 second=87 amount=-2
kerning first=99 second=101 amount=-1
kerning first=72 second=121 amount=-1
kerning first=85 second=78 amount=-2
kerning first=68 second=86 amount=-4
kerning first=50 second=52 amount=-1
kerning first=68 second=65 amount=-3
kerning first=36 second=84 amount=-1
kerning first=70 second=114 amount=-1
kerning first=65 second=76 amount=-1
kerning first=89 second=68 amount=-1
kerning first=89 second=75 amount=-1
kerning first=70 second=117 amount=-2
kerning first=79 second=83 amount=-2
kerning first=89 second=100 amount=-4
kerning first=108 second=108 amount=1
kerning first=67 second=67 amount=-3
kerning first=73 second=79 amount=-2
kerning first=85 second=65 amount=-2
kerning first=68 second=97 amount=-1
kerning first=79 second=90 amount=-2
kerning first=116 second=106 amount=-1
kerning first=84 second=121 amount=-3
kerning first=87 second=78 amount=-2
kerning first=86 second=112 amount=-4
kerning first=85 second=119 amount=-1
kerning first=81 second=105 amount=-1
kerning first=81 second=111 amount=-1
kerning first=102 second=115 amount=-3
kerning first=76 second=86 amount=-4
kerning first=109 second=103 amount=-1
kerning first=116 second=116 amount=-3
kerning first=90 second=101 amount=-1
kerning first=68 second=101 amount=-1
kerning first=65 second=122 amount=-1
kerning first=67 second=85 amount=-1
kerning first=121 second=106 amount=-3
kerning first=87 second=114 amount=-3
kerning first=65 second=67 amount=-3
kerning first=68 second=119 amount=-1
kerning first=84 second=111 amount=-3
kerning first=83 second=119 amount=-2
kerning first=86 second=122 amount=-4
kerning first=75 second=121 amount=-4
kerning first=84 second=99 amount=-3
kerning first=101 second=86 amount=-4
kerning first=101 second=110 amount=-1
kerning first=118 second=97 amount=-1
kerning first=65 second=101 amount=-2
kerning first=121 second=116 amount=-1
kerning first=118 second=85 amount=-4
kerning first=69 second=74 amount=-1
kerning first=87 second=119 amount=-1
kerning first=84 second=79 amount=-2
kerning first=89 second=118 amount=-3
kerning first=107 second=121 amount=-2
kerning first=122 second=121 amount=-1
kerning first=100 second=106 amount=-1
kerning first=86 second=106 amount=-4
kerning first=90 second=65 amount=-1
kerning first=85 second=73 amount=-2
kerning first=86 second=115 amount=-4
kerning first=67 second=65 amount=-2
kerning first=87 second=97 amount=-5
kerning first=107 second=97 amount=-2
kerning first=85 second=67 amount=-4
kerning first=97 second=89 amount=-3
kerning first=121 second=102 amount=-1
kerning first=79 second=65 amount=-3
kerning first=105 second=108 amount=1
kerning first=54 second=56 amount=-2
kerning first=114 second=109 amount=-1
kerning first=86 second=116 amount=-3
kerning first=85 second=82 amount=1
kerning first=73 second=121 amount=-2
kerning first=55 second=54 amount=-5
kerning first=121 second=112 amount=-1
kerning first=76 second=119 amount=-3
kerning first=68 second=85 amount=-1
kerning first=114 second=112 amount=-1
kerning first=67 second=101 amount=-2
kerning first=88 second=101 amount=-2
kerning first=106 second=98 amount=1
kerning first=110 second=116 amount=-1
kerning first=80 second=90 amount=-3
kerning first=121 second=117 amount=-1
kerning first=114 second=115 amount=-1
kerning first=84 second=114 amount=-3
kerning first=73 second=111 amount=-1
kerning first=102 second=106 amount=-3
kerning first=82 second=84 amount=-2
kerning first=86 second=117 amount=-3
kerning first=87 second=73 amount=-2
kerning first=65 second=65 amount=-1
kerning first=102 second=104 amount=-1
kerning first=65 second=83 amount=-2
kerning first=81 second=97 amount=-1
kerning first=89 second=97 amount=-3
kerning first=65 second=117 amount=-3
kerning first=79 second=67 amount=-1
kerning first=49 second=50 amount=-1
kerning first=73 second=118 amount=-2
kerning first=111 second=118 amount=-2
kerning first=83 second=85 amount=-2
kerning first=119 second=100 amount=-1
kerning first=88 second=111 amount=-1
kerning first=67 second=111 amount=-2
kerning first=82 second=67 amount=-1
kerning first=86 second=120 amount=-3
kerning first=99 second=113 amount=-1
kerning first=89 second=65 amount=-5
kerning first=87 second=115 amount=-1
kerning first=84 second=97 amount=-2
kerning first=86 second=101 amount=-4
kerning first=87 second=121 amount=-3
kerning first=99 second=99 amount=-1
kerning first=84 second=119 amount=-3
kerning first=121 second=67 amount=-1
kerning first=83 second=121 amount=-2
kerning first=86 second=109 amount=-4
kerning first=72 second=65 amount=-1
kerning first=121 second=122 amount=-2
kerning first=114 second=122 amount=-1
kerning first=55 second=57 amount=-3
kerning first=76 second=79 amount=-4
kerning first=73 second=86 amount=-1
kerning first=55 second=52 amount=-4
kerning first=86 second=102 amount=-2
kerning first=73 second=106 amount=-2
kerning first=87 second=79 amount=-4
kerning first=112 second=122 amount=-1
kerning first=82 second=79 amount=-1
kerning first=65 second=78 amount=-1
kerning first=121 second=109 amount=-1
kerning first=114 second=120 amount=-1
kerning first=86 second=73 amount=-2
kerning first=80 second=78 amount=1
kerning first=85 second=115 amount=-1
kerning first=89 second=71 amount=-3
kerning first=102 second=101 amount=-3
kerning first=68 second=90 amount=-2
kerning first=121 second=99 amount=-2
kerning first=114 second=99 amount=-1
kerning first=82 second=87 amount=-4
kerning first=78 second=71 amount=-1
kerning first=71 second=87 amount=-4
kerning first=122 second=106 amount=-2
kerning first=101 second=121 amount=-2
kerning first=119 second=99 amount=-2
kerning first=100 second=105 amount=1
kerning first=65 second=84 amount=-4
kerning first=79 second=84 amount=-2
kerning first=79 second=72 amount=-1
kerning first=36 second=87 amount=-2
kerning first=65 second=72 amount=-1
kerning first=112 second=104 amount=-1
kerning first=65 second=112 amount=-1
kerning first=73 second=85 amount=-2
kerning first=111 second=89 amount=-4
kerning first=80 second=79 amount=-1
kerning first=67 second=90 amount=-2
kerning first=109 second=119 amount=-3
kerning first=122 second=97 amount=-1
kerning first=98 second=121 amount=-2
kerning first=65 second=120 amount=-3
kerning first=76 second=65 amount=-1
kerning first=89 second=115 amount=-3
kerning first=109 second=97 amount=-1
kerning first=73 second=119 amount=-2
kerning first=122 second=99 amount=-1
kerning first=116 second=101 amount=-1
kerning first=80 second=89 amount=-2
kerning first=66 second=89 amount=-3
kerning first=114 second=100 amount=-2
kerning first=121 second=100 amount=-2
kerning first=89 second=79 amount=-2
kerning first=83 second=118 amount=-2
kerning first=97 second=106 amount=-2
kerning first=70 second=121 amount=-2
kerning first=118 second=65 amount=-5
kerning first=70 second=65 amount=-5
kerning first=114 second=101 amount=-2
kerning first=121 second=101 amount=-2
kerning first=102 second=117 amount=-3
kerning first=75 second=97 amount=-3
kerning first=69 second=86 amount=-1
kerning first=73 second=71 amount=-1
kerning first=97 second=86 amount=-3
kerning first=65 second=102 amount=-4
kerning first=82 second=89 amount=-2
kerning first=55 second=48 amount=-3
kerning first=86 second=67 amount=-4
kerning first=107 second=122 amount=-2
kerning first=65 second=108 amount=-1
kerning first=87 second=118 amount=-4
kerning first=115 second=118 amount=-1
kerning first=118 second=111 amount=-2
kerning first=70 second=111 amount=-2
kerning first=75 second=79 amount=-3
kerning first=75 second=119 amount=-4
kerning first=79 second=73 amount=-1
kerning first=65 second=73 amount=-1
kerning first=87 second=65 amount=-2
kerning first=102 second=44 amount=-1
kerning first=107 second=101 amount=-2
kerning first=89 second=90 amount=-2
kerning first=67 second=79 amount=-3
kerning first=87 second=82 amount=1
kerning first=107 second=119 amount=-2
kerning first=86 second=100 amount=-4
kerning first=121 second=111 amount=-3
kerning first=114 second=111 amount=-1
kerning first=102 second=121 amount=-3
kerning first=73 second=67 amount=-1
kerning first=111 second=87 amount=-4
kerning first=69 second=65 amount=-1
kerning first=36 second=85 amount=-2
kerning first=83 second=65 amount=-1
kerning first=119 second=97 amount=-2
kerning first=119 second=101 amount=-2
kerning first=68 second=83 amount=-1
kerning first=65 second=121 amount=-3
kerning first=117 second=67 amount=-1
kerning first=114 second=118 amount=-1
kerning first=65 second=110 amount=-1
kerning first=79 second=36 amount=-2
kerning first=34 second=65 amount=-5
kerning first=65 second=87 amount=-8
kerning first=66 second=65 amount=-2
kerning first=79 second=87 amount=-3
kerning first=80 second=65 amount=-3
kerning first=89 second=112 amount=-2
kerning first=36 second=65 amount=-1
kerning first=71 second=65 amount=-1
kerning first=97 second=119 amount=-1
kerning first=76 second=83 amount=-1
kerning first=99 second=97 amount=-1
kerning first=114 second=117 amount=-1
kerning first=102 second=100 amount=-3
kerning first=69 second=101 amount=-2
kerning first=84 second=65 amount=-4
kerning first=71 second=71 amount=-1
kerning first=82 second=86 amount=-3
kerning first=87 second=116 amount=-3
kerning first=65 second=79 amount=-3
kerning first=102 second=103 amount=-3
kerning first=75 second=73 amount=-1
kerning first=86 second=121 amount=-3
kerning first=110 second=106 amount=-2
kerning first=102 second=105 amount=-2
kerning first=56 second=54 amount=-1
kerning first=87 second=44 amount=-3
kerning first=102 second=43 amount=-1
kerning first=86 second=113 amount=-4
kerning first=69 second=71 amount=-2
kerning first=118 second=83 amount=-1
kerning first=80 second=97 amount=-1
kerning first=80 second=101 amount=-1
kerning first=66 second=101 amount=-1
kerning first=102 second=110 amount=-2
kerning first=65 second=75 amount=-1
kerning first=118 second=116 amount=-1
kerning first=86 second=89 amount=-2
kerning first=86 second=105 amount=-2
kerning first=110 second=118 amount=-2
kerning first=102 second=116 amount=-6
kerning first=103 second=106 amount=-2
kerning first=86 second=111 amount=-4
kerning first=79 second=89 amount=-3
kerning first=65 second=89 amount=-4
kerning first=65 second=100 amount=-2
kerning first=86 second=99 amount=-3
kerning first=102 second=111 amount=-3
kerning first=69 second=67 amount=-2
kerning first=87 second=72 amount=-2
kerning first=117 second=65 amount=-3
kerning first=75 second=65 amount=-1
kerning first=109 second=101 amount=-1
kerning first=116 second=97 amount=-2
kerning first=82 second=97 amount=-1
kerning first=82 second=85 amount=-1
kerning first=101 second=106 amount=-2
kerning first=86 second=79 amount=-4
kerning first=102 second=114 amount=-2
kerning first=104 second=121 amount=-2
kerning first=87 second=120 amount=-1
kerning first=83 second=87 amount=-2
kerning first=89 second=122 amount=-3
kerning first=65 second=109 amount=-2
kerning first=84 second=115 amount=-4
kerning first=89 second=67 amount=-3
kerning first=86 second=110 amount=-3
kerning first=85 second=72 amount=-2
kerning first=101 second=116 amount=-1
kerning first=68 second=69 amount=-1
kerning first=83 second=69 amount=-1
kerning first=86 second=86 amount=-2
kerning first=80 second=82 amount=1
kerning first=102 second=99 amount=-3
kerning first=111 second=121 amount=-3
kerning first=67 second=89 amount=-2
kerning first=65 second=111 amount=-1
kerning first=73 second=101 amount=-1
kerning first=85 second=120 amount=-1
kerning first=65 second=107 amount=-1
kerning first=39 second=115 amount=-3
kerning first=101 second=122 amount=-1
kerning first=85 second=83 amount=-1
kerning first=80 second=117 amount=1
kerning first=98 second=118 amount=-2
kerning first=107 second=111 amount=-2
kerning first=98 second=116 amount=-1
kerning first=112 second=117 amount=-1
kerning first=67 second=121 amount=-3
kerning first=75 second=101 amount=-2
kerning first=121 second=110 amount=-1
kerning first=76 second=69 amount=-1
kerning first=101 second=102 amount=-1
kerning first=98 second=122 amount=-1
kerning first=65 second=118 amount=-4
kerning first=86 second=114 amount=-3
kerning first=72 second=106 amount=-2
kerning first=88 second=121 amount=-2
kerning first=121 second=97 amount=-2
kerning first=114 second=97 amount=-2
kerning first=101 second=115 amount=-1
kerning first=65 second=113 amount=-3
